<?xml version="1.0" encoding="UTF-8" standalone="no"?>
<!-- Created with Inkscape (http://www.inkscape.org/) -->

<svg
   xmlns:dc="http://purl.org/dc/elements/1.1/"
   xmlns:cc="http://creativecommons.org/ns#"
   xmlns:rdf="http://www.w3.org/1999/02/22-rdf-syntax-ns#"
   xmlns:svg="http://www.w3.org/2000/svg"
   xmlns="http://www.w3.org/2000/svg"
   xmlns:sodipodi="http://sodipodi.sourceforge.net/DTD/sodipodi-0.dtd"
   xmlns:inkscape="http://www.inkscape.org/namespaces/inkscape"
   sodipodi:docname="trapezna_formula_skica.svg"
   inkscape:version="0.48.4 r9939"
   version="1.1"
   id="svg2"
   height="107.09431"
   width="514.20679">
  <sodipodi:namedview
     id="base"
     pagecolor="#ffffff"
     bordercolor="#666666"
     borderopacity="1.0"
     inkscape:pageopacity="0.0"
     inkscape:pageshadow="2"
     inkscape:zoom="2.8284271"
     inkscape:cx="164.14795"
     inkscape:cy="80.155342"
     inkscape:document-units="px"
     inkscape:current-layer="layer1"
     showgrid="true"
     inkscape:window-width="1920"
     inkscape:window-height="1135"
     inkscape:window-x="-2"
     inkscape:window-y="-3"
     inkscape:window-maximized="1"
     showguides="true"
     inkscape:guide-bbox="true"
     inkscape:object-nodes="true"
     inkscape:snap-object-midpoints="true"
     inkscape:snap-smooth-nodes="false"
     inkscape:snap-grids="true"
     inkscape:object-paths="true"
     fit-margin-top="0"
     fit-margin-left="0"
     fit-margin-right="0"
     fit-margin-bottom="0">
    <inkscape:grid
       snapvisiblegridlinesonly="true"
       enabled="true"
       visible="true"
       empspacing="5"
       id="grid2987"
       type="xygrid"
       originx="8.41px"
       originy="-53.7025px" />
  </sodipodi:namedview>
  <defs
     id="defs4">
    <marker
       style="overflow:visible"
       id="DotM"
       refX="0"
       refY="0"
       orient="auto"
       inkscape:stockid="DotM">
      <path
         transform="matrix(0.4,0,0,0.4,2.96,0.4)"
         style="fill-rule:evenodd;stroke:#000000;stroke-width:1pt"
         d="m -2.5,-1 c 0,2.76 -2.24,5 -5,5 -2.76,0 -5,-2.24 -5,-5 0,-2.76 2.24,-5 5,-5 2.76,0 5,2.24 5,5 z"
         id="path3941"
         inkscape:connector-curvature="0" />
    </marker>
    <marker
       style="overflow:visible"
       id="DotL"
       refX="0"
       refY="0"
       orient="auto"
       inkscape:stockid="DotL">
      <path
         transform="matrix(0.8,0,0,0.8,5.92,0.8)"
         style="fill-rule:evenodd;stroke:#000000;stroke-width:1pt"
         d="m -2.5,-1 c 0,2.76 -2.24,5 -5,5 -2.76,0 -5,-2.24 -5,-5 0,-2.76 2.24,-5 5,-5 2.76,0 5,2.24 5,5 z"
         id="path3938"
         inkscape:connector-curvature="0" />
    </marker>
    <linearGradient
       id="linearGradient6018">
      <stop
         id="stop6020"
         offset="0"
         style="stop-color:#d6d59e;stop-opacity:1;" />
      <stop
         id="stop6022"
         offset="1"
         style="stop-color:#d6d59e;stop-opacity:0;" />
    </linearGradient>
    <marker
       style="overflow:visible"
       id="Arrow2Mend"
       refX="0"
       refY="0"
       orient="auto"
       inkscape:stockid="Arrow2Mend">
      <path
         inkscape:connector-curvature="0"
         transform="scale(-0.6,-0.6)"
         d="M 8.7185878,4.0337352 -2.2072895,0.01601326 8.7185884,-4.0017078 c -1.7454984,2.3720609 -1.7354408,5.6174519 -6e-7,8.035443 z"
         style="fill-rule:evenodd;stroke-width:0.625;stroke-linejoin:round"
         id="path3818" />
    </marker>
    <marker
       style="overflow:visible"
       id="Arrow2Lend"
       refX="0"
       refY="0"
       orient="auto"
       inkscape:stockid="Arrow2Lend">
      <path
         inkscape:connector-curvature="0"
         transform="matrix(-1.1,0,0,-1.1,-1.1,0)"
         d="M 8.7185878,4.0337352 -2.2072895,0.01601326 8.7185884,-4.0017078 c -1.7454984,2.3720609 -1.7354408,5.6174519 -6e-7,8.035443 z"
         style="fill-rule:evenodd;stroke-width:0.625;stroke-linejoin:round"
         id="path3812" />
    </marker>
    <marker
       style="overflow:visible"
       id="TriangleOutL"
       refX="0"
       refY="0"
       orient="auto"
       inkscape:stockid="TriangleOutL">
      <path
         inkscape:connector-curvature="0"
         transform="scale(0.8,0.8)"
         style="fill-rule:evenodd;stroke:#000000;stroke-width:1pt"
         d="m 5.77,0 -8.65,5 0,-10 8.65,5 z"
         id="path3933" />
    </marker>
    <marker
       style="overflow:visible"
       id="Arrow1Lend"
       refX="0"
       refY="0"
       orient="auto"
       inkscape:stockid="Arrow1Lend">
      <path
         inkscape:connector-curvature="0"
         transform="matrix(-0.8,0,0,-0.8,-10,0)"
         style="fill-rule:evenodd;stroke:#000000;stroke-width:1pt"
         d="M 0,0 5,-5 -12.5,0 5,5 0,0 z"
         id="path3794" />
    </marker>
    <marker
       style="overflow:visible"
       id="Arrow2Lend-8"
       refX="0"
       refY="0"
       orient="auto"
       inkscape:stockid="Arrow2Lend">
      <path
         transform="matrix(-1.1,0,0,-1.1,-1.1,0)"
         d="M 8.7185878,4.0337352 -2.2072895,0.01601326 8.7185884,-4.0017078 c -1.7454984,2.3720609 -1.7354408,5.6174519 -6e-7,8.035443 z"
         style="fill-rule:evenodd;stroke-width:0.625;stroke-linejoin:round"
         id="path3812-0"
         inkscape:connector-curvature="0" />
    </marker>
    <marker
       style="overflow:visible"
       id="Arrow2Lend-7"
       refX="0"
       refY="0"
       orient="auto"
       inkscape:stockid="Arrow2Lend">
      <path
         transform="matrix(-1.1,0,0,-1.1,-1.1,0)"
         d="M 8.7185878,4.0337352 -2.2072895,0.01601326 8.7185884,-4.0017078 c -1.7454984,2.3720609 -1.7354408,5.6174519 -6e-7,8.035443 z"
         style="fill-rule:evenodd;stroke-width:0.625;stroke-linejoin:round"
         id="path3812-4"
         inkscape:connector-curvature="0" />
    </marker>
    <marker
       style="overflow:visible"
       id="Arrow2Lend-4"
       refX="0"
       refY="0"
       orient="auto"
       inkscape:stockid="Arrow2Lend">
      <path
         transform="matrix(-1.1,0,0,-1.1,-1.1,0)"
         d="M 8.7185878,4.0337352 -2.2072895,0.01601326 8.7185884,-4.0017078 c -1.7454984,2.3720609 -1.7354408,5.6174519 -6e-7,8.035443 z"
         style="fill-rule:evenodd;stroke-width:0.625;stroke-linejoin:round"
         id="path3812-7"
         inkscape:connector-curvature="0" />
    </marker>
    <marker
       style="overflow:visible"
       id="Arrow2Lend-4-3"
       refX="0"
       refY="0"
       orient="auto"
       inkscape:stockid="Arrow2Lend">
      <path
         transform="matrix(-1.1,0,0,-1.1,-1.1,0)"
         d="M 8.7185878,4.0337352 -2.2072895,0.01601326 8.7185884,-4.0017078 c -1.7454984,2.3720609 -1.7354408,5.6174519 -6e-7,8.035443 z"
         style="fill-rule:evenodd;stroke-width:0.625;stroke-linejoin:round"
         id="path3812-7-1"
         inkscape:connector-curvature="0" />
    </marker>
    <marker
       style="overflow:visible"
       id="Arrow2Lend-4-7"
       refX="0"
       refY="0"
       orient="auto"
       inkscape:stockid="Arrow2Lend">
      <path
         transform="matrix(-1.1,0,0,-1.1,-1.1,0)"
         d="M 8.7185878,4.0337352 -2.2072895,0.01601326 8.7185884,-4.0017078 c -1.7454984,2.3720609 -1.7354408,5.6174519 -6e-7,8.035443 z"
         style="fill-rule:evenodd;stroke-width:0.625;stroke-linejoin:round"
         id="path3812-7-8"
         inkscape:connector-curvature="0" />
    </marker>
    <marker
       style="overflow:visible"
       id="Arrow2Lend-4-1"
       refX="0"
       refY="0"
       orient="auto"
       inkscape:stockid="Arrow2Lend">
      <path
         transform="matrix(-1.1,0,0,-1.1,-1.1,0)"
         d="M 8.7185878,4.0337352 -2.2072895,0.01601326 8.7185884,-4.0017078 c -1.7454984,2.3720609 -1.7354408,5.6174519 -6e-7,8.035443 z"
         style="fill-rule:evenodd;stroke-width:0.625;stroke-linejoin:round"
         id="path3812-7-4"
         inkscape:connector-curvature="0" />
    </marker>
    <marker
       style="overflow:visible"
       id="Arrow2Lend-4-39"
       refX="0"
       refY="0"
       orient="auto"
       inkscape:stockid="Arrow2Lend">
      <path
         transform="matrix(-1.1,0,0,-1.1,-1.1,0)"
         d="M 8.7185878,4.0337352 -2.2072895,0.01601326 8.7185884,-4.0017078 c -1.7454984,2.3720609 -1.7354408,5.6174519 -6e-7,8.035443 z"
         style="fill-rule:evenodd;stroke-width:0.625;stroke-linejoin:round"
         id="path3812-7-5"
         inkscape:connector-curvature="0" />
    </marker>
    <marker
       style="overflow:visible"
       id="DotM-4"
       refX="0"
       refY="0"
       orient="auto"
       inkscape:stockid="DotM">
      <path
         transform="matrix(0.4,0,0,0.4,2.96,0.4)"
         style="fill-rule:evenodd;stroke:#000000;stroke-width:1pt"
         d="m -2.5,-1 c 0,2.76 -2.24,5 -5,5 -2.76,0 -5,-2.24 -5,-5 0,-2.76 2.24,-5 5,-5 2.76,0 5,2.24 5,5 z"
         id="path3941-6"
         inkscape:connector-curvature="0" />
    </marker>
    <marker
       style="overflow:visible"
       id="marker4765"
       refX="0"
       refY="0"
       orient="auto"
       inkscape:stockid="DotM">
      <path
         transform="matrix(0.4,0,0,0.4,2.96,0.4)"
         style="fill-rule:evenodd;stroke:#000000;stroke-width:1pt"
         d="m -2.5,-1 c 0,2.76 -2.24,5 -5,5 -2.76,0 -5,-2.24 -5,-5 0,-2.76 2.24,-5 5,-5 2.76,0 5,2.24 5,5 z"
         id="path4767"
         inkscape:connector-curvature="0" />
    </marker>
    <marker
       style="overflow:visible"
       id="DotM-5"
       refX="0"
       refY="0"
       orient="auto"
       inkscape:stockid="DotM">
      <path
         transform="matrix(0.4,0,0,0.4,2.96,0.4)"
         style="fill-rule:evenodd;stroke:#000000;stroke-width:1pt"
         d="m -2.5,-1 c 0,2.76 -2.24,5 -5,5 -2.76,0 -5,-2.24 -5,-5 0,-2.76 2.24,-5 5,-5 2.76,0 5,2.24 5,5 z"
         id="path3941-7"
         inkscape:connector-curvature="0" />
    </marker>
    <marker
       style="overflow:visible"
       id="marker4765-0"
       refX="0"
       refY="0"
       orient="auto"
       inkscape:stockid="DotM">
      <path
         transform="matrix(0.4,0,0,0.4,2.96,0.4)"
         style="fill-rule:evenodd;stroke:#000000;stroke-width:1pt"
         d="m -2.5,-1 c 0,2.76 -2.24,5 -5,5 -2.76,0 -5,-2.24 -5,-5 0,-2.76 2.24,-5 5,-5 2.76,0 5,2.24 5,5 z"
         id="path4767-8"
         inkscape:connector-curvature="0" />
    </marker>
    <marker
       style="overflow:visible"
       id="DotM-3"
       refX="0"
       refY="0"
       orient="auto"
       inkscape:stockid="DotM">
      <path
         transform="matrix(0.4,0,0,0.4,2.96,0.4)"
         style="fill-rule:evenodd;stroke:#000000;stroke-width:1pt"
         d="m -2.5,-1 c 0,2.76 -2.24,5 -5,5 -2.76,0 -5,-2.24 -5,-5 0,-2.76 2.24,-5 5,-5 2.76,0 5,2.24 5,5 z"
         id="path3941-8"
         inkscape:connector-curvature="0" />
    </marker>
    <marker
       style="overflow:visible"
       id="marker4812"
       refX="0"
       refY="0"
       orient="auto"
       inkscape:stockid="DotM">
      <path
         transform="matrix(0.4,0,0,0.4,2.96,0.4)"
         style="fill-rule:evenodd;stroke:#000000;stroke-width:1pt"
         d="m -2.5,-1 c 0,2.76 -2.24,5 -5,5 -2.76,0 -5,-2.24 -5,-5 0,-2.76 2.24,-5 5,-5 2.76,0 5,2.24 5,5 z"
         id="path4814"
         inkscape:connector-curvature="0" />
    </marker>
    <marker
       style="overflow:visible"
       id="marker4816"
       refX="0"
       refY="0"
       orient="auto"
       inkscape:stockid="DotM">
      <path
         transform="matrix(0.4,0,0,0.4,2.96,0.4)"
         style="fill-rule:evenodd;stroke:#000000;stroke-width:1pt"
         d="m -2.5,-1 c 0,2.76 -2.24,5 -5,5 -2.76,0 -5,-2.24 -5,-5 0,-2.76 2.24,-5 5,-5 2.76,0 5,2.24 5,5 z"
         id="path4818"
         inkscape:connector-curvature="0" />
    </marker>
    <marker
       style="overflow:visible"
       id="marker4820"
       refX="0"
       refY="0"
       orient="auto"
       inkscape:stockid="DotM">
      <path
         transform="matrix(0.4,0,0,0.4,2.96,0.4)"
         style="fill-rule:evenodd;stroke:#000000;stroke-width:1pt"
         d="m -2.5,-1 c 0,2.76 -2.24,5 -5,5 -2.76,0 -5,-2.24 -5,-5 0,-2.76 2.24,-5 5,-5 2.76,0 5,2.24 5,5 z"
         id="path4822"
         inkscape:connector-curvature="0" />
    </marker>
    <marker
       style="overflow:visible"
       id="marker4824"
       refX="0"
       refY="0"
       orient="auto"
       inkscape:stockid="DotM">
      <path
         transform="matrix(0.4,0,0,0.4,2.96,0.4)"
         style="fill-rule:evenodd;stroke:#000000;stroke-width:1pt"
         d="m -2.5,-1 c 0,2.76 -2.24,5 -5,5 -2.76,0 -5,-2.24 -5,-5 0,-2.76 2.24,-5 5,-5 2.76,0 5,2.24 5,5 z"
         id="path4826"
         inkscape:connector-curvature="0" />
    </marker>
    <marker
       style="overflow:visible"
       id="marker4828"
       refX="0"
       refY="0"
       orient="auto"
       inkscape:stockid="DotM">
      <path
         transform="matrix(0.4,0,0,0.4,2.96,0.4)"
         style="fill-rule:evenodd;stroke:#000000;stroke-width:1pt"
         d="m -2.5,-1 c 0,2.76 -2.24,5 -5,5 -2.76,0 -5,-2.24 -5,-5 0,-2.76 2.24,-5 5,-5 2.76,0 5,2.24 5,5 z"
         id="path4830"
         inkscape:connector-curvature="0" />
    </marker>
    <marker
       style="overflow:visible"
       id="Arrow2Lend-4-0"
       refX="0"
       refY="0"
       orient="auto"
       inkscape:stockid="Arrow2Lend">
      <path
         transform="matrix(-1.1,0,0,-1.1,-1.1,0)"
         d="M 8.7185878,4.0337352 -2.2072895,0.01601326 8.7185884,-4.0017078 c -1.7454984,2.3720609 -1.7354408,5.6174519 -6e-7,8.035443 z"
         style="fill-rule:evenodd;stroke-width:0.625;stroke-linejoin:round"
         id="path3812-7-0"
         inkscape:connector-curvature="0" />
    </marker>
    <marker
       style="overflow:visible"
       id="marker4834"
       refX="0"
       refY="0"
       orient="auto"
       inkscape:stockid="Arrow2Lend">
      <path
         transform="matrix(-1.1,0,0,-1.1,-1.1,0)"
         d="M 8.7185878,4.0337352 -2.2072895,0.01601326 8.7185884,-4.0017078 c -1.7454984,2.3720609 -1.7354408,5.6174519 -6e-7,8.035443 z"
         style="fill-rule:evenodd;stroke-width:0.625;stroke-linejoin:round"
         id="path4836"
         inkscape:connector-curvature="0" />
    </marker>
  </defs>
  <metadata
     id="metadata7">
    <rdf:RDF>
      <cc:Work
         rdf:about="">
        <dc:format>image/svg+xml</dc:format>
        <dc:type
           rdf:resource="http://purl.org/dc/dcmitype/StillImage" />
        <dc:title />
      </cc:Work>
    </rdf:RDF>
  </metadata>
  <g
     transform="translate(8.41,-891.56537)"
     id="layer1"
     inkscape:groupmode="layer"
     inkscape:label="Layer 1">
    <path
       inkscape:connector-curvature="0"
       id="path4946"
       d="m 285,987.36218 0,-75 65,-20 65,15 65,-5 0,85 z"
       style="fill:#c6d3d6;fill-opacity:0.64563108;stroke:none" />
    <path
       inkscape:connector-curvature="0"
       id="path4936"
       d="m 30,987.36218 0,-75 195,-10 0,85 z"
       style="fill:#c6d3d6;fill-opacity:0.64705882;stroke:none" />
    <text
       sodipodi:linespacing="125%"
       id="text4673"
       y="1139.8104"
       x="299.09277"
       style="font-size:20px;font-style:normal;font-weight:normal;line-height:125%;letter-spacing:0px;word-spacing:0px;fill:#000000;fill-opacity:1;stroke:none;font-family:Sans"
       xml:space="preserve"><tspan
         y="1139.8104"
         x="299.09277"
         id="tspan4675"
         sodipodi:role="line" /></text>
    <path
       sodipodi:nodetypes="cc"
       inkscape:connector-curvature="0"
       id="path3005-4-1"
       d="m 10,987.36218 240,0"
       style="fill:none;stroke:#000000;stroke-width:0.60000002;stroke-linecap:butt;stroke-linejoin:miter;stroke-miterlimit:1.33333337;stroke-opacity:1;stroke-dasharray:none;marker-end:url(#Arrow2Lend-4)" />
    <path
       sodipodi:nodetypes="caac"
       inkscape:connector-curvature="0"
       id="path3047"
       d="m 30,912.36218 c 0,0 42.345448,-19.18749 65,-20 22.22182,-0.79699 42.82643,13.33356 65,15 21.66956,1.62857 43.07844,-5.02573 65,-5"
       style="fill:none;stroke:#1c289c;stroke-width:1px;stroke-linecap:butt;stroke-linejoin:miter;stroke-opacity:1" />
    <path
       sodipodi:nodetypes="cc"
       inkscape:connector-curvature="0"
       id="path3897"
       d="m 30,912.36218 0,75"
       style="fill:none;stroke:#000000;stroke-width:0.5;stroke-linecap:butt;stroke-linejoin:miter;stroke-miterlimit:4;stroke-opacity:1;stroke-dasharray:2, 0.5;stroke-dashoffset:0" />
    <path
       sodipodi:nodetypes="cc"
       inkscape:connector-curvature="0"
       id="path3905"
       d="m 225,902.36218 0,85"
       style="fill:none;stroke:#000000;stroke-width:0.5;stroke-linecap:butt;stroke-linejoin:miter;stroke-miterlimit:4;stroke-opacity:1;stroke-dasharray:2, 0.5;stroke-dashoffset:0" />
    <path
       sodipodi:nodetypes="cc"
       inkscape:connector-curvature="0"
       id="path3005-4-1-3"
       d="m 20,997.36218 0,-105"
       style="fill:none;stroke:#000000;stroke-width:0.60000002;stroke-linecap:butt;stroke-linejoin:miter;stroke-miterlimit:1.33333337;stroke-opacity:1;stroke-dasharray:none;marker-end:url(#Arrow2Lend-4)" />
    <text
       transform="translate(0,877.36218)"
       sodipodi:linespacing="125%"
       id="text3965"
       y="118.5"
       x="380.25"
       style="font-size:20px;font-style:normal;font-weight:normal;line-height:125%;letter-spacing:0px;word-spacing:0px;fill:#000000;fill-opacity:1;stroke:none;font-family:Sans"
       xml:space="preserve"><tspan
         y="118.5"
         x="380.25"
         id="tspan3967"
         sodipodi:role="line" /></text>
    <path
       sodipodi:nodetypes="cc"
       inkscape:connector-curvature="0"
       id="path3005-4-1-0"
       d="m 265,987.36218 240,0"
       style="fill:none;stroke:#000000;stroke-width:0.60000002;stroke-linecap:butt;stroke-linejoin:miter;stroke-miterlimit:1.33333337;stroke-opacity:1;stroke-dasharray:none;marker-end:url(#Arrow2Lend-4)" />
    <path
       sodipodi:nodetypes="caac"
       inkscape:connector-curvature="0"
       id="path3047-1"
       d="m 285,912.36216 c 0,0 42.34545,-19.18749 65,-20 22.22182,-0.79699 42.82643,13.33356 65,15 21.66956,1.62857 43.07844,-5.02573 65,-5"
       style="fill:none;stroke:#1c289c;stroke-width:1px;stroke-linecap:butt;stroke-linejoin:miter;stroke-opacity:1" />
    <path
       sodipodi:nodetypes="cc"
       inkscape:connector-curvature="0"
       id="path3897-8"
       d="m 285,912.36216 0,75.00002"
       style="fill:none;stroke:#000000;stroke-width:0.5;stroke-linecap:butt;stroke-linejoin:miter;stroke-miterlimit:4;stroke-opacity:1;stroke-dasharray:2, 0.5;stroke-dashoffset:0" />
    <path
       sodipodi:nodetypes="cc"
       inkscape:connector-curvature="0"
       id="path3905-1"
       d="m 480,902.36216 0,85.00002"
       style="fill:none;stroke:#000000;stroke-width:0.5;stroke-linecap:butt;stroke-linejoin:miter;stroke-miterlimit:4;stroke-opacity:1;stroke-dasharray:2, 0.5;stroke-dashoffset:0" />
    <path
       sodipodi:nodetypes="cc"
       inkscape:connector-curvature="0"
       id="path3005-4-1-3-6"
       d="m 275,997.36218 0,-105"
       style="fill:none;stroke:#000000;stroke-width:0.60000002;stroke-linecap:butt;stroke-linejoin:miter;stroke-miterlimit:1.33333337;stroke-opacity:1;stroke-dasharray:none;marker-end:url(#Arrow2Lend-4)" />
    <path
       sodipodi:nodetypes="cc"
       inkscape:connector-curvature="0"
       id="path3897-8-3"
       d="m 350,892.36218 0,95"
       style="fill:none;stroke:#000000;stroke-width:0.5;stroke-linecap:butt;stroke-linejoin:miter;stroke-miterlimit:4;stroke-opacity:1;stroke-dasharray:2, 0.5;stroke-dashoffset:0" />
    <path
       sodipodi:nodetypes="cc"
       inkscape:connector-curvature="0"
       id="path3897-8-1"
       d="m 415,907.36218 0,80"
       style="fill:none;stroke:#000000;stroke-width:0.5;stroke-linecap:butt;stroke-linejoin:miter;stroke-miterlimit:4;stroke-opacity:1;stroke-dasharray:2, 0.5;stroke-dashoffset:0" />
    <path
       sodipodi:nodetypes="cc"
       inkscape:connector-curvature="0"
       id="path3897-0"
       d="m 225,902.36218 -195,10"
       style="fill:none;stroke:#000000;stroke-width:0.5;stroke-linecap:butt;stroke-linejoin:miter;stroke-miterlimit:4;stroke-opacity:1;stroke-dasharray:2, 0.5;stroke-dashoffset:0" />
    <path
       sodipodi:nodetypes="cc"
       inkscape:connector-curvature="0"
       id="path3897-0-9"
       d="m 350,892.36218 -65,20"
       style="fill:none;stroke:#000000;stroke-width:0.5;stroke-linecap:butt;stroke-linejoin:miter;stroke-miterlimit:4;stroke-opacity:1;stroke-dasharray:2, 0.5;stroke-dashoffset:0" />
    <path
       sodipodi:nodetypes="cc"
       inkscape:connector-curvature="0"
       id="path3897-0-3"
       d="m 415,907.36218 -65,-15"
       style="fill:none;stroke:#000000;stroke-width:0.5;stroke-linecap:butt;stroke-linejoin:miter;stroke-miterlimit:4;stroke-opacity:1;stroke-dasharray:2, 0.5;stroke-dashoffset:0" />
    <path
       sodipodi:nodetypes="cc"
       inkscape:connector-curvature="0"
       id="path3897-0-1"
       d="m 480,902.36218 -65,5"
       style="fill:none;stroke:#000000;stroke-width:0.5;stroke-linecap:butt;stroke-linejoin:miter;stroke-miterlimit:4;stroke-opacity:1;stroke-dasharray:2, 0.5;stroke-dashoffset:0" />
  </g>
  <g
     id="g3604"
     transform="translate(177.325,-91.668189)">
    <g
       id="content"
       transform="matrix(0.25,0,0,-0.25,-43.75,300)"
       xml:space="preserve"
       stroke-miterlimit="10.433"
       font-style="normal"
       font-variant="normal"
       font-weight="normal"
       font-stretch="normal"
       font-size-adjust="none"
       letter-spacing="normal"
       word-spacing="normal"
       style="font-style:normal;font-variant:normal;font-weight:normal;font-stretch:normal;letter-spacing:normal;word-spacing:normal;text-anchor:start;fill:none;stroke:#000000;stroke-linecap:butt;stroke-linejoin:miter;stroke-miterlimit:10.43299961;stroke-opacity:1;stroke-dasharray:none;stroke-dashoffset:0"><path
         d="m 458.01,410.59 0,-0.18 -0.01,-0.18 0,-0.17 -0.01,-0.18 -0.01,-0.17 -0.02,-0.17 -0.02,-0.17 -0.02,-0.18 -0.02,-0.19 -0.02,-0.1 -0.01,-0.09 -0.02,-0.11 -0.02,-0.1 -0.01,-0.11 -0.02,-0.11 -0.02,-0.12 -0.02,-0.11 -0.03,-0.13 -0.02,-0.12 -0.03,-0.14 -0.02,-0.13 -0.03,-0.14 -0.03,-0.15 c -0.09,-0.59 -0.14,-0.73 -0.19,-1.09 0.75,-0.39 1.55,-0.6 2.14,-0.6 1.65,0 3.58,1.44 5.13,3.78 l 3.8,5.83 0.54,-3.44 c 0.64,-4.23 1.78,-6.17 3.58,-6.17 1.1,0 2.69,0.85 4.28,2.3 l 2.46,2.19 -0.46,0.93 c -1.79,-1.48 -3.04,-2.23 -3.84,-2.23 -0.74,0 -1.39,0.5 -1.89,1.5 -0.44,0.94 -0.99,2.78 -1.24,4.23 l -0.9,5.04 1.75,2.43 c 2.34,3.24 3.69,4.39 5.23,4.39 0.8,0 1.39,-0.4 1.64,-1.15 l 0.69,0.2 0.75,4.23 c -0.59,0.35 -1.05,0.5 -1.48,0.5 -2,0 -3.99,-1.79 -7.08,-6.37 l -1.85,-2.75 -0.29,2.39 c -0.61,4.94 -1.96,6.73 -4.89,6.73 -1.3,0 -2.39,-0.4 -2.85,-1.04 l -2.87,-4.14 0.84,-0.5 c 1.49,1.7 2.49,2.39 3.44,2.39 1.64,0 2.73,-2.03 3.58,-6.92 l 0.54,-3.08 -1.98,-3.1 c -2.14,-3.34 -3.84,-4.93 -5.23,-4.93 -0.75,0 -1.3,0.2 -1.4,0.45 l -0.54,1.39 z"
         id="path3607"
         inkscape:connector-curvature="0"
         style="fill:#000000;stroke-width:0" /></g>  </g>
  <g
     id="g3803"
     transform="translate(-69.88,-184.40819)">
    <g
       word-spacing="normal"
       letter-spacing="normal"
       font-size-adjust="none"
       font-stretch="normal"
       font-weight="normal"
       font-variant="normal"
       font-style="normal"
       stroke-miterlimit="10.433"
       xml:space="preserve"
       transform="matrix(0.25,0,0,-0.25,-43.75,300)"
       id="g3805"
       style="font-style:normal;font-variant:normal;font-weight:normal;font-stretch:normal;letter-spacing:normal;word-spacing:normal;text-anchor:start;fill:none;stroke:#000000;stroke-linecap:butt;stroke-linejoin:miter;stroke-miterlimit:10.43299961;stroke-opacity:1;stroke-dasharray:none;stroke-dashoffset:0"><path
         id="path3807"
         d="m 476.85,425.28 0.04,0.18 0.04,0.18 0.05,0.19 0.05,0.19 0.05,0.19 0.05,0.19 0.05,0.18 0.06,0.19 0.05,0.18 0.06,0.18 0.06,0.18 0.06,0.16 0.05,0.17 0.06,0.15 0.03,0.08 0.03,0.07 0.03,0.07 0.03,0.06 -0.21,0.35 -0.34,-0.1 c -1.19,-0.29 -1.75,-0.36 -4.19,-0.36 h -0.8 l 1.05,5.6 c 0.8,4.28 2.19,6.17 4.49,6.17 1.5,0 2.84,-0.75 3.59,-1.94 l 0.5,0.19 c 0.25,0.8 0.73,2.34 1.14,3.34 l 0.25,0.75 c -0.8,0.35 -2.34,0.64 -3.48,0.64 -0.55,0 -1.35,-0.14 -1.75,-0.34 -1.19,-0.55 -5.29,-3.59 -6.43,-4.78 -1.09,-1.09 -1.7,-2.59 -2.25,-5.44 l -0.75,-3.94 c -2.03,-0.98 -3.03,-1.39 -4.28,-1.84 l -0.25,-1.09 h 4.05 l -0.45,-2.78 c -1.5,-9.72 -3.35,-18.99 -4.44,-22.43 -0.89,-2.93 -2.39,-4.48 -4.19,-4.48 -1.14,0 -1.69,0.34 -2.59,1.44 l -0.69,-0.19 c -0.2,-1.16 -0.91,-3.55 -1.16,-4 0.46,-0.23 1.21,-0.39 1.75,-0.39 2.05,0 4.74,1.55 6.68,3.89 3.04,3.58 4.14,7.06 7.78,24.56 0.14,0.6 0.54,2.49 0.93,4.38 z"
         inkscape:connector-curvature="0"
         style="fill:#000000;stroke-width:0" /><path
         id="path3809"
         d="m 501.52,393.73 0,0.03 0,0.03 0,0.01 -0.01,0.02 0,0.01 0,0.02 -0.01,0.02 -0.01,0.02 -0.01,0.02 -0.01,0.02 -0.01,0.02 -0.01,0.03 -0.02,0.02 -0.02,0.03 -0.02,0.03 -0.03,0.03 -0.03,0.04 -0.03,0.04 -0.01,0.02 -0.02,0.02 -0.02,0.02 -0.02,0.02 -0.02,0.02 -0.02,0.03 -0.02,0.02 -0.03,0.03 -0.02,0.02 -0.02,0.03 -0.03,0.03 -0.03,0.02 -0.03,0.03 -0.03,0.03 -0.03,0.04 -0.03,0.03 -0.03,0.03 -0.03,0.03 -0.04,0.04 -0.03,0.04 -0.04,0.03 -0.04,0.04 -0.04,0.04 -0.04,0.04 c -6.49,6.55 -8.16,16.38 -8.16,24.31 0,9.05 1.97,18.1 8.38,24.58 0.67,0.63 0.67,0.74 0.67,0.89 0,0.36 -0.22,0.52 -0.53,0.52 -0.52,0 -5.19,-3.53 -8.25,-10.13 -2.66,-5.72 -3.28,-11.48 -3.28,-15.86 0,-4.04 0.58,-10.32 3.43,-16.2 3.11,-6.39 7.58,-9.77 8.1,-9.77 0.31,0 0.53,0.16 0.53,0.52 z"
         inkscape:connector-curvature="0"
         style="fill:#000000;stroke-width:0" /><path
         id="path3811"
         d="m 507.56,410.59 0,-0.18 -0.01,-0.18 0,-0.17 -0.01,-0.18 -0.01,-0.17 -0.02,-0.17 -0.02,-0.17 -0.02,-0.18 -0.02,-0.19 -0.02,-0.1 -0.01,-0.09 -0.02,-0.11 -0.01,-0.1 -0.02,-0.11 -0.02,-0.11 -0.02,-0.12 -0.02,-0.11 -0.03,-0.13 -0.02,-0.12 -0.03,-0.14 -0.02,-0.13 -0.03,-0.14 -0.03,-0.15 c -0.09,-0.59 -0.14,-0.73 -0.19,-1.09 0.75,-0.39 1.55,-0.6 2.15,-0.6 1.64,0 3.57,1.44 5.12,3.78 l 3.8,5.83 0.54,-3.44 c 0.65,-4.23 1.78,-6.17 3.58,-6.17 1.1,0 2.69,0.85 4.28,2.3 l 2.46,2.19 -0.46,0.93 c -1.79,-1.48 -3.04,-2.23 -3.84,-2.23 -0.74,0 -1.39,0.5 -1.89,1.5 -0.44,0.94 -0.98,2.78 -1.23,4.23 l -0.91,5.04 1.75,2.43 c 2.34,3.24 3.69,4.39 5.23,4.39 0.8,0 1.39,-0.4 1.64,-1.15 l 0.69,0.2 0.75,4.23 c -0.59,0.35 -1.05,0.5 -1.48,0.5 -2,0 -3.99,-1.79 -7.08,-6.37 l -1.84,-2.75 -0.3,2.39 c -0.61,4.94 -1.95,6.73 -4.89,6.73 -1.3,0 -2.39,-0.4 -2.85,-1.04 l -2.87,-4.14 0.84,-0.5 c 1.49,1.7 2.49,2.39 3.44,2.39 1.64,0 2.73,-2.03 3.58,-6.92 l 0.55,-3.08 -1.99,-3.1 c -2.14,-3.34 -3.84,-4.93 -5.23,-4.93 -0.75,0 -1.3,0.2 -1.39,0.45 l -0.55,1.39 z"
         inkscape:connector-curvature="0"
         style="fill:#000000;stroke-width:0" /><path
         id="path3813"
         d="m 548.16,419.18 0,0.39 0,0.4 -0.01,0.41 -0.02,0.43 -0.04,0.88 -0.06,0.92 -0.09,0.95 -0.11,0.99 -0.14,1.02 -0.17,1.04 -0.21,1.07 -0.24,1.08 -0.27,1.1 -0.32,1.1 -0.37,1.11 -0.4,1.11 -0.23,0.56 -0.23,0.56 -0.25,0.55 -0.26,0.55 c -3.12,6.39 -7.59,9.77 -8.11,9.77 -0.31,0 -0.51,-0.21 -0.51,-0.52 0,-0.15 0,-0.26 0.98,-1.2 5.1,-5.14 8.05,-13.41 8.05,-24.27 0,-8.87 -1.92,-18.03 -8.36,-24.57 -0.67,-0.61 -0.67,-0.72 -0.67,-0.88 0,-0.31 0.2,-0.52 0.51,-0.52 0.52,0 5.19,3.54 8.27,10.13 2.64,5.72 3.26,11.48 3.26,15.84 z"
         inkscape:connector-curvature="0"
         style="fill:#000000;stroke-width:0" /></g>  </g>
  <g
     id="g4021"
     transform="translate(-33.91,-91.493189)">
    <g
       id="g4023"
       transform="matrix(0.25,0,0,-0.25,-43.75,300)"
       xml:space="preserve"
       stroke-miterlimit="10.433"
       font-style="normal"
       font-variant="normal"
       font-weight="normal"
       font-stretch="normal"
       font-size-adjust="none"
       letter-spacing="normal"
       word-spacing="normal"
       style="font-style:normal;font-variant:normal;font-weight:normal;font-stretch:normal;letter-spacing:normal;word-spacing:normal;text-anchor:start;fill:none;stroke:#000000;stroke-linecap:butt;stroke-linejoin:miter;stroke-miterlimit:10.43299961;stroke-opacity:1;stroke-dasharray:none;stroke-dashoffset:0"><path
         d="m 476.87,429.71 -0.5,0.46 -1.64,-0.91 c -2.05,0.75 -2.89,0.95 -4.23,0.95 -1.41,0 -2.39,-0.25 -3.74,-0.9 -3.09,-1.53 -4.73,-3.03 -5.98,-5.47 -2.19,-4.44 -3.74,-10.42 -3.74,-14.3 0,-2.2 0.75,-3.89 1.69,-3.89 1.09,0 2.98,1.1 4.89,2.78 2.09,1.91 4.03,4.14 6.72,7.93 L 469,416.21 c -2.85,-4.18 -5.88,-7.07 -7.47,-7.07 -0.61,0 -0.91,0.65 -0.91,2 0,3.18 1.41,9.01 3.14,13 1.2,2.73 2.35,3.64 4.74,3.64 1.14,0 2.04,-0.21 4.23,-0.96 h 0 c -1.09,-5.42 -2.05,-8.01 -3.73,-10.61 l 1.34,0.15 -1.44,-6.32 c -0.2,-0.86 -0.29,-1.75 -0.29,-2.54 0,-1.1 0.43,-1.75 1.18,-1.75 1.14,0 3.19,1.29 7.28,4.68 l -0.36,1.05 c -0.29,-0.25 -0.43,-0.34 -0.64,-0.55 -1.59,-1.34 -2.34,-1.79 -3.09,-1.79 -0.45,0 -0.75,0.45 -0.75,1.14 0,0.25 0,0.4 0.05,0.56 z"
         id="path4025"
         inkscape:connector-curvature="0"
         style="fill:#000000;stroke-width:0" /></g>  </g>
  <g
     id="g4239"
     transform="translate(160.6575,-91.770689)">
    <g
       word-spacing="normal"
       letter-spacing="normal"
       font-size-adjust="none"
       font-stretch="normal"
       font-weight="normal"
       font-variant="normal"
       font-style="normal"
       stroke-miterlimit="10.433"
       xml:space="preserve"
       transform="matrix(0.25,0,0,-0.25,-43.75,300)"
       id="g4241"
       style="font-style:normal;font-variant:normal;font-weight:normal;font-stretch:normal;letter-spacing:normal;word-spacing:normal;text-anchor:start;fill:none;stroke:#000000;stroke-linecap:butt;stroke-linejoin:miter;stroke-miterlimit:10.43299961;stroke-opacity:1;stroke-dasharray:none;stroke-dashoffset:0"><path
         id="path4243"
         d="m 467.82,442.17 -0.59,0.54 c -2.59,-1.29 -4.39,-1.73 -7.97,-2.09 l -0.2,-1.05 h 2.39 c 1.2,0 1.7,-0.34 1.7,-1.18 0,-0.36 -0.06,-0.91 -0.11,-1.21 l -5.03,-27.45 c -0.05,-0.14 -0.05,-0.34 -0.05,-0.48 0,-1.96 2.4,-3.6 5.13,-3.6 1.84,0 4.39,0.96 6.53,2.49 4.78,3.39 8.08,10.22 8.08,16.79 0,1.89 -0.45,3.83 -1.05,4.58 -0.36,0.45 -1,0.7 -1.75,0.7 -1.19,0 -2.69,-0.4 -4.08,-1.09 l 1.35,-1.8 c 1.29,0 1.94,-1.14 1.94,-3.59 0,-3.19 -1.05,-7.47 -2.55,-10.7 -1.64,-3.44 -3.63,-5.03 -6.31,-5.03 -2.3,0 -3.55,1.14 -3.55,3.23 0,1.25 0.2,2.64 0.66,4.48 0.93,3.99 2.14,6.38 4.12,8.47 1.64,1.69 4.23,3.14 5.69,3.14 h 0 l -1.35,1.8 c -2.54,-1.34 -4.18,-2.84 -7.28,-6.78 z"
         inkscape:connector-curvature="0"
         style="fill:#000000;stroke-width:0" /></g>  </g>
  <g
     id="g3803-3"
     transform="translate(185.12,-184.40819)">
    <g
       word-spacing="normal"
       letter-spacing="normal"
       font-size-adjust="none"
       font-stretch="normal"
       font-weight="normal"
       font-variant="normal"
       font-style="normal"
       stroke-miterlimit="10.433"
       xml:space="preserve"
       transform="matrix(0.25,0,0,-0.25,-43.75,300)"
       id="g3805-2"
       style="font-style:normal;font-variant:normal;font-weight:normal;font-stretch:normal;letter-spacing:normal;word-spacing:normal;text-anchor:start;fill:none;stroke:#000000;stroke-linecap:butt;stroke-linejoin:miter;stroke-miterlimit:10.43299961;stroke-opacity:1;stroke-dasharray:none;stroke-dashoffset:0"><path
         id="path3807-4"
         d="m 476.85,425.28 0.04,0.18 0.04,0.18 0.05,0.19 0.05,0.19 0.05,0.19 0.05,0.19 0.05,0.18 0.06,0.19 0.05,0.18 0.06,0.18 0.06,0.18 0.06,0.16 0.05,0.17 0.06,0.15 0.03,0.08 0.03,0.07 0.03,0.07 0.03,0.06 -0.21,0.35 -0.34,-0.1 c -1.19,-0.29 -1.75,-0.36 -4.19,-0.36 h -0.8 l 1.05,5.6 c 0.8,4.28 2.19,6.17 4.49,6.17 1.5,0 2.84,-0.75 3.59,-1.94 l 0.5,0.19 c 0.25,0.8 0.73,2.34 1.14,3.34 l 0.25,0.75 c -0.8,0.35 -2.34,0.64 -3.48,0.64 -0.55,0 -1.35,-0.14 -1.75,-0.34 -1.19,-0.55 -5.29,-3.59 -6.43,-4.78 -1.09,-1.09 -1.7,-2.59 -2.25,-5.44 l -0.75,-3.94 c -2.03,-0.98 -3.03,-1.39 -4.28,-1.84 l -0.25,-1.09 h 4.05 l -0.45,-2.78 c -1.5,-9.72 -3.35,-18.99 -4.44,-22.43 -0.89,-2.93 -2.39,-4.48 -4.19,-4.48 -1.14,0 -1.69,0.34 -2.59,1.44 l -0.69,-0.19 c -0.2,-1.16 -0.91,-3.55 -1.16,-4 0.46,-0.23 1.21,-0.39 1.75,-0.39 2.05,0 4.74,1.55 6.68,3.89 3.04,3.58 4.14,7.06 7.78,24.56 0.14,0.6 0.54,2.49 0.93,4.38 z"
         inkscape:connector-curvature="0"
         style="fill:#000000;stroke-width:0" /><path
         id="path3809-7"
         d="m 501.52,393.73 0,0.03 0,0.03 0,0.01 -0.01,0.02 0,0.01 0,0.02 -0.01,0.02 -0.01,0.02 -0.01,0.02 -0.01,0.02 -0.01,0.02 -0.01,0.03 -0.02,0.02 -0.02,0.03 -0.02,0.03 -0.03,0.03 -0.03,0.04 -0.03,0.04 -0.01,0.02 -0.02,0.02 -0.02,0.02 -0.02,0.02 -0.02,0.02 -0.02,0.03 -0.02,0.02 -0.03,0.03 -0.02,0.02 -0.02,0.03 -0.03,0.03 -0.03,0.02 -0.03,0.03 -0.03,0.03 -0.03,0.04 -0.03,0.03 -0.03,0.03 -0.03,0.03 -0.04,0.04 -0.03,0.04 -0.04,0.03 -0.04,0.04 -0.04,0.04 -0.04,0.04 c -6.49,6.55 -8.16,16.38 -8.16,24.31 0,9.05 1.97,18.1 8.38,24.58 0.67,0.63 0.67,0.74 0.67,0.89 0,0.36 -0.22,0.52 -0.53,0.52 -0.52,0 -5.19,-3.53 -8.25,-10.13 -2.66,-5.72 -3.28,-11.48 -3.28,-15.86 0,-4.04 0.58,-10.32 3.43,-16.2 3.11,-6.39 7.58,-9.77 8.1,-9.77 0.31,0 0.53,0.16 0.53,0.52 z"
         inkscape:connector-curvature="0"
         style="fill:#000000;stroke-width:0" /><path
         id="path3811-9"
         d="m 507.56,410.59 0,-0.18 -0.01,-0.18 0,-0.17 -0.01,-0.18 -0.01,-0.17 -0.02,-0.17 -0.02,-0.17 -0.02,-0.18 -0.02,-0.19 -0.02,-0.1 -0.01,-0.09 -0.02,-0.11 -0.01,-0.1 -0.02,-0.11 -0.02,-0.11 -0.02,-0.12 -0.02,-0.11 -0.03,-0.13 -0.02,-0.12 -0.03,-0.14 -0.02,-0.13 -0.03,-0.14 -0.03,-0.15 c -0.09,-0.59 -0.14,-0.73 -0.19,-1.09 0.75,-0.39 1.55,-0.6 2.15,-0.6 1.64,0 3.57,1.44 5.12,3.78 l 3.8,5.83 0.54,-3.44 c 0.65,-4.23 1.78,-6.17 3.58,-6.17 1.1,0 2.69,0.85 4.28,2.3 l 2.46,2.19 -0.46,0.93 c -1.79,-1.48 -3.04,-2.23 -3.84,-2.23 -0.74,0 -1.39,0.5 -1.89,1.5 -0.44,0.94 -0.98,2.78 -1.23,4.23 l -0.91,5.04 1.75,2.43 c 2.34,3.24 3.69,4.39 5.23,4.39 0.8,0 1.39,-0.4 1.64,-1.15 l 0.69,0.2 0.75,4.23 c -0.59,0.35 -1.05,0.5 -1.48,0.5 -2,0 -3.99,-1.79 -7.08,-6.37 l -1.84,-2.75 -0.3,2.39 c -0.61,4.94 -1.95,6.73 -4.89,6.73 -1.3,0 -2.39,-0.4 -2.85,-1.04 l -2.87,-4.14 0.84,-0.5 c 1.49,1.7 2.49,2.39 3.44,2.39 1.64,0 2.73,-2.03 3.58,-6.92 l 0.55,-3.08 -1.99,-3.1 c -2.14,-3.34 -3.84,-4.93 -5.23,-4.93 -0.75,0 -1.3,0.2 -1.39,0.45 l -0.55,1.39 z"
         inkscape:connector-curvature="0"
         style="fill:#000000;stroke-width:0" /><path
         id="path3813-8"
         d="m 548.16,419.18 0,0.39 0,0.4 -0.01,0.41 -0.02,0.43 -0.04,0.88 -0.06,0.92 -0.09,0.95 -0.11,0.99 -0.14,1.02 -0.17,1.04 -0.21,1.07 -0.24,1.08 -0.27,1.1 -0.32,1.1 -0.37,1.11 -0.4,1.11 -0.23,0.56 -0.23,0.56 -0.25,0.55 -0.26,0.55 c -3.12,6.39 -7.59,9.77 -8.11,9.77 -0.31,0 -0.51,-0.21 -0.51,-0.52 0,-0.15 0,-0.26 0.98,-1.2 5.1,-5.14 8.05,-13.41 8.05,-24.27 0,-8.87 -1.92,-18.03 -8.36,-24.57 -0.67,-0.61 -0.67,-0.72 -0.67,-0.88 0,-0.31 0.2,-0.52 0.51,-0.52 0.52,0 5.19,3.54 8.27,10.13 2.64,5.72 3.26,11.48 3.26,15.84 z"
         inkscape:connector-curvature="0"
         style="fill:#000000;stroke-width:0" /></g>  </g>
  <g
     id="g3604-6"
     transform="translate(431.63125,-91.895689)">
    <g
       id="content-4"
       transform="matrix(0.25,0,0,-0.25,-43.75,300)"
       xml:space="preserve"
       stroke-miterlimit="10.433"
       font-style="normal"
       font-variant="normal"
       font-weight="normal"
       font-stretch="normal"
       font-size-adjust="none"
       letter-spacing="normal"
       word-spacing="normal"
       style="font-style:normal;font-variant:normal;font-weight:normal;font-stretch:normal;letter-spacing:normal;word-spacing:normal;text-anchor:start;fill:none;stroke:#000000;stroke-linecap:butt;stroke-linejoin:miter;stroke-miterlimit:10.43299961;stroke-opacity:1;stroke-dasharray:none;stroke-dashoffset:0"><path
         d="m 458.01,410.59 0,-0.18 -0.01,-0.18 0,-0.17 -0.01,-0.18 -0.01,-0.17 -0.02,-0.17 -0.02,-0.17 -0.02,-0.18 -0.02,-0.19 -0.02,-0.1 -0.01,-0.09 -0.02,-0.11 -0.02,-0.1 -0.01,-0.11 -0.02,-0.11 -0.02,-0.12 -0.02,-0.11 -0.03,-0.13 -0.02,-0.12 -0.03,-0.14 -0.02,-0.13 -0.03,-0.14 -0.03,-0.15 c -0.09,-0.59 -0.14,-0.73 -0.19,-1.09 0.75,-0.39 1.55,-0.6 2.14,-0.6 1.65,0 3.58,1.44 5.13,3.78 l 3.8,5.83 0.54,-3.44 c 0.64,-4.23 1.78,-6.17 3.58,-6.17 1.1,0 2.69,0.85 4.28,2.3 l 2.46,2.19 -0.46,0.93 c -1.79,-1.48 -3.04,-2.23 -3.84,-2.23 -0.74,0 -1.39,0.5 -1.89,1.5 -0.44,0.94 -0.99,2.78 -1.24,4.23 l -0.9,5.04 1.75,2.43 c 2.34,3.24 3.69,4.39 5.23,4.39 0.8,0 1.39,-0.4 1.64,-1.15 l 0.69,0.2 0.75,4.23 c -0.59,0.35 -1.05,0.5 -1.48,0.5 -2,0 -3.99,-1.79 -7.08,-6.37 l -1.85,-2.75 -0.29,2.39 c -0.61,4.94 -1.96,6.73 -4.89,6.73 -1.3,0 -2.39,-0.4 -2.85,-1.04 l -2.87,-4.14 0.84,-0.5 c 1.49,1.7 2.49,2.39 3.44,2.39 1.64,0 2.73,-2.03 3.58,-6.92 l 0.54,-3.08 -1.98,-3.1 c -2.14,-3.34 -3.84,-4.93 -5.23,-4.93 -0.75,0 -1.3,0.2 -1.4,0.45 l -0.54,1.39 z"
         id="path3607-5"
         inkscape:connector-curvature="0"
         style="fill:#000000;stroke-width:0" /></g>  </g>
  <g
     id="g4021-2"
     transform="translate(220.39625,-91.720689)">
    <g
       id="g4023-8"
       transform="matrix(0.25,0,0,-0.25,-43.75,300)"
       xml:space="preserve"
       stroke-miterlimit="10.433"
       font-style="normal"
       font-variant="normal"
       font-weight="normal"
       font-stretch="normal"
       font-size-adjust="none"
       letter-spacing="normal"
       word-spacing="normal"
       style="font-style:normal;font-variant:normal;font-weight:normal;font-stretch:normal;letter-spacing:normal;word-spacing:normal;text-anchor:start;fill:none;stroke:#000000;stroke-linecap:butt;stroke-linejoin:miter;stroke-miterlimit:10.43299961;stroke-opacity:1;stroke-dasharray:none;stroke-dashoffset:0"><path
         d="m 476.87,429.71 -0.5,0.46 -1.64,-0.91 c -2.05,0.75 -2.89,0.95 -4.23,0.95 -1.41,0 -2.39,-0.25 -3.74,-0.9 -3.09,-1.53 -4.73,-3.03 -5.98,-5.47 -2.19,-4.44 -3.74,-10.42 -3.74,-14.3 0,-2.2 0.75,-3.89 1.69,-3.89 1.09,0 2.98,1.1 4.89,2.78 2.09,1.91 4.03,4.14 6.72,7.93 L 469,416.21 c -2.85,-4.18 -5.88,-7.07 -7.47,-7.07 -0.61,0 -0.91,0.65 -0.91,2 0,3.18 1.41,9.01 3.14,13 1.2,2.73 2.35,3.64 4.74,3.64 1.14,0 2.04,-0.21 4.23,-0.96 h 0 c -1.09,-5.42 -2.05,-8.01 -3.73,-10.61 l 1.34,0.15 -1.44,-6.32 c -0.2,-0.86 -0.29,-1.75 -0.29,-2.54 0,-1.1 0.43,-1.75 1.18,-1.75 1.14,0 3.19,1.29 7.28,4.68 l -0.36,1.05 c -0.29,-0.25 -0.43,-0.34 -0.64,-0.55 -1.59,-1.34 -2.34,-1.79 -3.09,-1.79 -0.45,0 -0.75,0.45 -0.75,1.14 0,0.25 0,0.4 0.05,0.56 z"
         id="path4025-8"
         inkscape:connector-curvature="0"
         style="fill:#000000;stroke-width:0" /></g>  </g>
  <g
     id="g4239-0"
     transform="translate(414.96375,-91.998189)">
    <g
       word-spacing="normal"
       letter-spacing="normal"
       font-size-adjust="none"
       font-stretch="normal"
       font-weight="normal"
       font-variant="normal"
       font-style="normal"
       stroke-miterlimit="10.433"
       xml:space="preserve"
       transform="matrix(0.25,0,0,-0.25,-43.75,300)"
       id="g4241-1"
       style="font-style:normal;font-variant:normal;font-weight:normal;font-stretch:normal;letter-spacing:normal;word-spacing:normal;text-anchor:start;fill:none;stroke:#000000;stroke-linecap:butt;stroke-linejoin:miter;stroke-miterlimit:10.43299961;stroke-opacity:1;stroke-dasharray:none;stroke-dashoffset:0"><path
         id="path4243-9"
         d="m 467.82,442.17 -0.59,0.54 c -2.59,-1.29 -4.39,-1.73 -7.97,-2.09 l -0.2,-1.05 h 2.39 c 1.2,0 1.7,-0.34 1.7,-1.18 0,-0.36 -0.06,-0.91 -0.11,-1.21 l -5.03,-27.45 c -0.05,-0.14 -0.05,-0.34 -0.05,-0.48 0,-1.96 2.4,-3.6 5.13,-3.6 1.84,0 4.39,0.96 6.53,2.49 4.78,3.39 8.08,10.22 8.08,16.79 0,1.89 -0.45,3.83 -1.05,4.58 -0.36,0.45 -1,0.7 -1.75,0.7 -1.19,0 -2.69,-0.4 -4.08,-1.09 l 1.35,-1.8 c 1.29,0 1.94,-1.14 1.94,-3.59 0,-3.19 -1.05,-7.47 -2.55,-10.7 -1.64,-3.44 -3.63,-5.03 -6.31,-5.03 -2.3,0 -3.55,1.14 -3.55,3.23 0,1.25 0.2,2.64 0.66,4.48 0.93,3.99 2.14,6.38 4.12,8.47 1.64,1.69 4.23,3.14 5.69,3.14 h 0 l -1.35,1.8 c -2.54,-1.34 -4.18,-2.84 -7.28,-6.78 z"
         inkscape:connector-curvature="0"
         style="fill:#000000;stroke-width:0" /></g>  </g>
</svg>
